{
  "hosting": {
    "site": "chainstation",
    "source": ".",
    "ignore": [
      "firebase.json",
      "**/.*",
      "**/node_modules/**",
      "*.sh"
    ],
    "frameworksBackend": {
      "region": "us-central1",
      "secrets": ["IRON_PASSWORD_ONE", "ZEROX_API_KEY", "SIWE_INFURA_API_KEY"]
    }
  },
  "emulators": {
    "firestore": {
      "port": 25603,
      "host": "0.0.0.0"
    },
    "functions": {
      "port": 25604,
      "host": "0.0.0.0"
    },
    "hosting": {
      "port": 25602,
      "host": "0.0.0.0"
    },
    "ui": {
      "enabled": true,
      "port": 25605,
      "host": "0.0.0.0"
    },
    "singleProjectMode": true
  }
}
